INDEX VERSION 1.130+C:\1.TS\fsd60\4.SpringBoot\workspace1\.metadata\.plugins\org.eclipse.jdt.core
522738024.index
569581127.index
1854784865.index
3549684714.index
1961815414.index
3819337387.index
3227115496.index
2190022682.index
1790228139.index
552928146.index
2972788534.index
1830632740.index
2465251968.index
3266328191.index
2667241548.index
370106346.index
3644761064.index
513983880.index
4281731511.index
1940812909.index
2485443118.index
1430623462.index
1946725198.index
1097773103.index
3352971113.index
1509104426.index
4135958314.index
1636472615.index
2157817130.index
3806545499.index
3871938230.index
3040837599.index
103378668.index
556049063.index
3919345687.index
3822206772.index
1864090320.index
742344802.index
3616385672.index
2258817299.index
1566872598.index
996618349.index
4112955520.index
2972411706.index
3348520720.index
3481012292.index
476292049.index
2960605198.index
1586441946.index
2885606711.index
1956904976.index
4259073463.index
1823404596.index
2731218347.index
461829067.index
542153213.index
260850871.index
674573568.index
2205283528.index
2177522487.index
1577535204.index
2795418811.index
895354549.index
1524085107.index
4138326577.index
1828026965.index
2507423472.index
694854486.index
3008697697.index
2066830214.index
2576943852.index
3939388070.index
3082910877.index
781132946.index
2816939530.index
411227453.index
1288678504.index
855647786.index
965944613.index
