INDEX VERSION 1.3+C:\1.TS\fsd60\3.Adv.Java\advjavaworkspace4\.metadata\.plugins\org.eclipse.wst.jsdt.core\indexes
2814828893.index
1980101838.index
3926709857.index
2418729284.index
2163112920.index
2564760105.index
